本人在运动过程中不慎扭伤右脚踝关节，两周未继续参加体育活动右脚行走仍旧疼痛，遂室友陪同前往医院进行X光、CT检查，诊断结果踝关节扭伤，医生处理建议避免体育活动，提出本学期体测免测申请。
燃尽之血
牺牲自己 6 生命值击飞附近半径 3 格以内的敌人，同时获得 8 点抗性值（黄心），持续五秒，攻击力增加 50%
效果结束后进入失明与衰弱状态持续20秒
CD：一分钟

var str="";
var prepix="bbc",endpix="v1-a1",lenth=438,dir="F:\\download\\data\\ec2b33490dadb883e5b0de51b8bf55be\\",key="F4 BE 77 29 80 35 B2 33  21 15 16 64 68 0F 69 EF".replace(/\s/g,"");
for(let i=1;i<=lenth;i++)
str+="openssl.exe aes-128-cbc -d -in "+dir+"children\\"+prepix+"-"+i+"-"+endpix+".ts -out "+dir+"children\\1"+prepix+"-"+i+"-"+endpix+".ts -nosalt -iv 00000000000000000000000000000001 -K "+key+"\n"
str+="copy /b "+dir+"children\\1"+prepix+"-1-"+endpix+".ts";
for(let i=2;i<=lenth;i++) str+="+"+dir+"children\\1"+prepix+"-"+i+"-"+endpix+".ts";
str+=" "+dir+"new.ts";
console.log(str);